<?xml version="1.0" encoding="utf-8" ?>
<robot xmlns:xacro="http://www.ros.org/wiki/xacro" name="arm7bot_gripper">

    <!-- Gripper begin -->

    <xacro:link_w_collision name="gripper_base">
        <geometry>
            <mesh filename="package://arm7bot_description/mesh/gripper_base.dae" scale="-0.001 0.001 0.001"/>
        </geometry>
        <origin xyz="0 0 0" rpy="1.57075 0 -1.57075"/>
    </xacro:link_w_collision>

    <joint name="tool_holder_virtual_to_gripper_base" type="fixed">
        <parent link="tool_holder_virtual"/>
        <child link="gripper_base"/>
        <origin xyz="0.001 0 0" rpy="-1.57075 0 0"/>
    </joint>

    <xacro:link_w_collision name="gripper_driven_link_left">
        <geometry>
            <mesh filename="package://arm7bot_description/mesh/gripper_driven_arm_left.dae"
                  scale="-0.001 0.001 0.001"/>
        </geometry>
        <origin xyz="0 0 0" rpy="0 0 -1.57075"/>
    </xacro:link_w_collision>

    <joint name="m6_tool_actuator" type="revolute">
        <parent link="gripper_base"/>
        <child link="gripper_driven_link_left"/>
        <origin xyz="0.0205 0.01 -0.004" rpy="0 0 0.28075"/>
        <axis xyz="0 0 1"/>
        <limit effort="1000.0" lower="0.00001" upper="1.29" velocity="${m6_maxSpeed}"/>
    </joint>

    <xacro:link_w_collision name="gripper_passive_link_left">
        <geometry>
            <mesh filename="package://arm7bot_description/mesh/gripper_passive_link.dae" scale="0.001 0.001 0.001"/>
        </geometry>
        <origin xyz="0 0 -0.005" rpy="1.57075 0 0"/>
    </xacro:link_w_collision>

    <joint name="gripper_base_to_passive_link_left" type="revolute">
        <parent link="gripper_base"/>
        <child link="gripper_passive_link_left"/>
        <origin xyz="0.035 0.004 0" rpy="0 0 0.28075"/>
        <axis xyz="0 0 1"/>
        <limit effort="1000.0" lower="-1.57075" upper="1.57075" velocity="100"/>
        <mimic joint="m6_tool_actuator" multiplier="1" offset="0"/>
    </joint>

    <xacro:link_w_collision name="gripper_claw_left">
        <geometry>
            <mesh filename="package://arm7bot_description/mesh/gripper_claw.dae" scale="0.001 0.001 0.001"/>
        </geometry>
        <origin xyz="0 0 0.001" rpy="1.57075 0 0"/>
    </xacro:link_w_collision>

    <joint name="gripper_driven_link_to_claw_left" type="revolute">
        <parent link="gripper_driven_link_left"/>
        <child link="gripper_claw_left"/>
        <origin xyz="0.028 0 0" rpy="0 0 -0.69"/>
        <axis xyz="0 0 1"/>
        <limit effort="1000.0" lower="-1.57075" upper="1.57075" velocity="100"/>
        <mimic joint="m6_tool_actuator" multiplier="-1" offset="0"/>
    </joint>

    <xacro:link_w_collision name="gripper_driven_link_right">
        <geometry>
            <mesh filename="package://arm7bot_description/mesh/gripper_driven_arm_right.dae"
                  scale="-0.001 0.001 0.001"/>
        </geometry>
        <origin xyz="0 0 0" rpy="0 0 1.57075"/>
    </xacro:link_w_collision>

    <joint name="gripper_base_to_driven_link_right" type="revolute">
        <parent link="gripper_base"/>
        <child link="gripper_driven_link_right"/>
        <origin xyz="0.0205 -0.01 -0.004" rpy="0 0 -0.28075"/>
        <axis xyz="0 0 1"/>
        <limit effort="1000.0" lower="-1.57075" upper="1.57075" velocity="100"/>
        <mimic joint="m6_tool_actuator" multiplier="-1" offset="0"/>
    </joint>

    <xacro:link_w_collision name="gripper_passive_link_right">
        <geometry>
            <mesh filename="package://arm7bot_description/mesh/gripper_passive_link.dae" scale="0.001 0.001 0.001"/>
        </geometry>
        <origin xyz="0 0 -0.005" rpy="1.57075 0 0"/>
    </xacro:link_w_collision>

    <joint name="gripper_base_to_passive_link_right" type="revolute">
        <parent link="gripper_base"/>
        <child link="gripper_passive_link_right"/>
        <origin xyz="0.035 -0.004 0" rpy="0 0 -0.28075"/>
        <axis xyz="0 0 1"/>
        <limit effort="1000.0" lower="-1.57075" upper="1.57075" velocity="100"/>
        <mimic joint="m6_tool_actuator" multiplier="-1" offset="0"/>
    </joint>

    <xacro:link_w_collision name="gripper_claw_right">
        <geometry>
            <mesh filename="package://arm7bot_description/mesh/gripper_claw.dae" scale="0.001 -0.001 0.001"/>
        </geometry>
        <origin xyz="0 0 0.001" rpy="-1.57075 0 0"/>
    </xacro:link_w_collision>

    <joint name="gripper_driven_link_to_claw_right" type="revolute">
        <parent link="gripper_driven_link_right"/>
        <child link="gripper_claw_right"/>
        <origin xyz="0.028 0 0" rpy="0 0 0.69"/>
        <axis xyz="0 0 1"/>
        <limit effort="1000.0" lower="-1.57075" upper="1.57075" velocity="100"/>
        <mimic joint="m6_tool_actuator" multiplier="1" offset="0"/>
    </joint>

    <!-- Gripper end -->

</robot>